IS415-GAA - Take-Home Exercise 2: Spatio-temporal analysis of COVID-19 Vaccination Trends at the Sub-district Level, DKI Jarkarta
…
month <- vaccination %>%
  filter(date == "2021-07-01")
wm_q <- month %>%
  mutate(nb = st_contiguity(geometry),
         wt = st_weights(nb,
                         style = "W"),
         .before=1)
wm_q

Simple feature collection with 1733 features and 5 fields
Geometry type: MULTIPOLYGON
Dimension:     XY
Bounding box:  xmin: 686587.9 ymin: 9295420 xmax: 718314.5 ymax: 9326648
Projected CRS: DGN95 / UTM zone 48S
# A tibble: 1,733 × 6
   nb         wt         date       subdistr…¹ vacci…²                  geometry
 * <nb>       <list>     <fct>      <chr>        <dbl>        <MULTIPOLYGON [m]>
 1 <int [36]> <dbl [36]> 2021-07-01 PADEMANGAN   0.439 (((705374.9 9319867, 705…
 2 <int [18]> <dbl [18]> 2021-07-01 PADEMANGAN   0.439 (((703435.4 9320774, 703…
 3 <int [56]> <dbl [56]> 2021-07-01 PADEMANGAN   0.439 (((706161.9 9323032, 706…
 4 <int [65]> <dbl [65]> 2021-07-01 TAMBORA      0.432 (((699986.5 9320097, 699…
 5 <int [73]> <dbl [73]> 2021-07-01 TAMBORA      0.432 (((700048.7 9320815, 700…
 6 <int [56]> <dbl [56]> 2021-07-01 TAMBORA      0.432 (((699332.3 9319111, 699…
 7 <int [65]> <dbl [65]> 2021-07-01 TAMBORA      0.432 (((700076.3 9319167, 699…
 8 <int [84]> <dbl [84]> 2021-07-01 TAMBORA      0.432 (((700480.1 9320083, 700…
 9 <int [68]> <dbl [68]> 2021-07-01 TAMBORA      0.432 (((699283.3 9320010, 699…
10 <int [44]> <dbl [44]> 2021-07-01 TAMBORA      0.432 (((699268 9320073, 69927…
# … with 1,723 more rows, and abbreviated variable names ¹​subdistrict,
#   ²​vaccination_rate
…
