IS415-GAA - Take Home Exercise 1
…
wp_functional$status_clean[1:length(wp_functional$status_clean)] <- "Functional"
wp_nonfunctional$status_clean[1:length(wp_nonfunctional$status_clean)] <- "Non-Functional"

Afterwhich, we can combine them together by using bind_rows from dplyr package.

wp_combined <- bind_rows(wp_functional, wp_nonfunctional)
wp_combined

Simple feature collection with 4809 features and 1 field
Geometry type: POINT
Dimension:     XY
Bounding box:  xmin: 177285.9 ymin: 340054.1 xmax: 290751 ymax: 450859.7
Projected CRS: Minna / Nigeria Mid Belt
# A tibble: 4,809 × 2
   status_clean            geometry
 * <chr>                <POINT [m]>
 1 Functional     (212810 386707.6)
 2 Functional   (228798.9 403822.5)
 3 Functional   (270497.9 377476.9)
 4 Functional     (212202 349210.1)
 5 Functional   (259331.9 399591.4)
 6 Functional     (195484 404733.2)
 7 Functional   (221302.3 389473.6)
 8 Functional   (263254.1 382692.9)
 9 Functional     (192484.1 405113)
10 Functional       (252736 373593)
# … with 4,799 more rows

Observe that status_clean is a chr type. We have to convert that into a factor type. The reason for this is because a factor is a variable used to categorize and store data. This is necessary when doing multi-point correlation analysis.

Use base R as.factor() to convert the variable type.

wp_combined$status_clean <- as.factor(wp_combined$status_clean)
wp_combined

Simple feature collection with 4809 features and 1 field
Geometry type: POINT
Dimension:     XY
Bounding box:  xmin: 177285.9 ymin: 340054.1 xmax: 290751 ymax: 450859.7
Projected CRS: Minna / Nigeria Mid Belt
# A tibble: 4,809 × 2
   status_clean            geometry
 * <fct>                <POINT [m]>
 1 Functional     (212810 386707.6)
 2 Functional   (228798.9 403822.5)
 3 Functional   (270497.9 377476.9)
 4 Functional     (212202 349210.1)
 5 Functional   (259331.9 399591.4)
 6 Functional     (195484 404733.2)
 7 Functional   (221302.3 389473.6)
 8 Functional   (263254.1 382692.9)
 9 Functional     (192484.1 405113)
10 Functional       (252736 373593)
# … with 4,799 more rows
…
